<?xml version="1.0"?>
<font>
<info face="15" size="120" bold="0" italic="0" charset="" unicode="0" stretchH="100" smooth="1" aa="1" padding="0,0,0,0" spacing="1,1"/>
<common lineHeight="144" base="26" scaleW="1024" scaleH="1024" pages="1" packed="0"/>
<pages>
<page id="0" file="font15.png"/>
</pages>
<chars count="95">
<char id="32" x="0" y="0" width="0" height="0" xoffset="0" yoffset="112" xadvance="39" page="0" chnl="0"/>
<char id="124" x="0" y="0" width="11" height="124" xoffset="15" yoffset="18" xadvance="41" page="0" chnl="0" />
<char id="106" x="11" y="0" width="27" height="120" xoffset="-2" yoffset="18" xadvance="34" page="0" chnl="0" />
<char id="125" x="38" y="0" width="47" height="115" xoffset="15" yoffset="18" xadvance="77" page="0" chnl="0" />
<char id="123" x="85" y="0" width="47" height="115" xoffset="15" yoffset="18" xadvance="77" page="0" chnl="0" />
<char id="74" x="132" y="0" width="37" height="115" xoffset="-7" yoffset="22" xadvance="36" page="0" chnl="0" />
<char id="36" x="169" y="0" width="58" height="113" xoffset="10" yoffset="18" xadvance="77" page="0" chnl="0" />
<char id="93" x="227" y="0" width="26" height="111" xoffset="11" yoffset="18" xadvance="47" page="0" chnl="0" />
<char id="91" x="253" y="0" width="26" height="111" xoffset="10" yoffset="18" xadvance="47" page="0" chnl="0" />
<char id="41" x="279" y="0" width="28" height="111" xoffset="10" yoffset="18" xadvance="47" page="0" chnl="0" />
<char id="40" x="307" y="0" width="28" height="111" xoffset="10" yoffset="18" xadvance="47" page="0" chnl="0" />
<char id="127" x="335" y="0" width="61" height="110" xoffset="6" yoffset="24" xadvance="73" page="0" chnl="0" />
<char id="64" x="396" y="0" width="105" height="109" xoffset="8" yoffset="24" xadvance="121" page="0" chnl="0" />
<char id="81" x="501" y="0" width="82" height="108" xoffset="7" yoffset="20" xadvance="95" page="0" chnl="0" />
<char id="92" x="583" y="0" width="41" height="103" xoffset="0" yoffset="22" xadvance="41" page="0" chnl="0" />
<char id="47" x="624" y="0" width="41" height="103" xoffset="0" yoffset="22" xadvance="41" page="0" chnl="0" />
<char id="113" x="665" y="0" width="60" height="97" xoffset="7" yoffset="41" xadvance="77" page="0" chnl="0" />
<char id="112" x="725" y="0" width="60" height="97" xoffset="11" yoffset="41" xadvance="77" page="0" chnl="0" />
<char id="103" x="785" y="0" width="60" height="97" xoffset="7" yoffset="41" xadvance="77" page="0" chnl="0" />
<char id="100" x="845" y="0" width="60" height="97" xoffset="7" yoffset="18" xadvance="77" page="0" chnl="0" />
<char id="98" x="905" y="0" width="60" height="97" xoffset="11" yoffset="18" xadvance="77" page="0" chnl="0" />
<char id="121" x="0" y="124" width="65" height="95" xoffset="4" yoffset="43" xadvance="72" page="0" chnl="0" />
<char id="108" x="65" y="124" width="12" height="95" xoffset="11" yoffset="18" xadvance="34" page="0" chnl="0" />
<char id="107" x="77" y="124" width="59" height="95" xoffset="11" yoffset="18" xadvance="70" page="0" chnl="0" />
<char id="105" x="136" y="124" width="12" height="95" xoffset="11" yoffset="18" xadvance="34" page="0" chnl="0" />
<char id="104" x="148" y="124" width="56" height="95" xoffset="11" yoffset="18" xadvance="77" page="0" chnl="0" />
<char id="102" x="204" y="124" width="45" height="95" xoffset="3" yoffset="18" xadvance="43" page="0" chnl="0" />
<char id="83" x="249" y="124" width="63" height="95" xoffset="8" yoffset="20" xadvance="77" page="0" chnl="0" />
<char id="79" x="312" y="124" width="82" height="95" xoffset="7" yoffset="20" xadvance="95" page="0" chnl="0" />
<char id="71" x="394" y="124" width="77" height="95" xoffset="7" yoffset="20" xadvance="93" page="0" chnl="0" />
<char id="67" x="471" y="124" width="72" height="95" xoffset="7" yoffset="20" xadvance="84" page="0" chnl="0" />
<char id="57" x="543" y="124" width="61" height="95" xoffset="8" yoffset="20" xadvance="77" page="0" chnl="0" />
<char id="56" x="604" y="124" width="61" height="95" xoffset="8" yoffset="20" xadvance="77" page="0" chnl="0" />
<char id="54" x="665" y="124" width="61" height="95" xoffset="8" yoffset="20" xadvance="77" page="0" chnl="0" />
<char id="51" x="726" y="124" width="59" height="95" xoffset="9" yoffset="20" xadvance="77" page="0" chnl="0" />
<char id="48" x="785" y="124" width="61" height="95" xoffset="8" yoffset="20" xadvance="77" page="0" chnl="0" />
<char id="38" x="846" y="124" width="83" height="95" xoffset="7" yoffset="20" xadvance="94" page="0" chnl="0" />
<char id="37" x="0" y="219" width="102" height="95" xoffset="7" yoffset="20" xadvance="115" page="0" chnl="0" />
<char id="85" x="102" y="219" width="68" height="93" xoffset="10" yoffset="22" xadvance="88" page="0" chnl="0" />
<char id="63" x="170" y="219" width="48" height="93" xoffset="9" yoffset="20" xadvance="64" page="0" chnl="0" />
<char id="53" x="218" y="219" width="58" height="93" xoffset="9" yoffset="22" xadvance="77" page="0" chnl="0" />
<char id="50" x="276" y="219" width="57" height="93" xoffset="9" yoffset="20" xadvance="77" page="0" chnl="0" />
<char id="90" x="333" y="219" width="72" height="91" xoffset="5" yoffset="22" xadvance="83" page="0" chnl="0" />
<char id="89" x="405" y="219" width="75" height="91" xoffset="0" yoffset="22" xadvance="74" page="0" chnl="0" />
<char id="88" x="480" y="219" width="76" height="91" xoffset="4" yoffset="22" xadvance="83" page="0" chnl="0" />
<char id="87" x="556" y="219" width="112" height="91" xoffset="4" yoffset="22" xadvance="119" page="0" chnl="0" />
<char id="86" x="668" y="219" width="81" height="91" xoffset="1" yoffset="22" xadvance="83" page="0" chnl="0" />
<char id="84" x="749" y="219" width="75" height="91" xoffset="0" yoffset="22" xadvance="74" page="0" chnl="0" />
<char id="82" x="824" y="219" width="70" height="91" xoffset="11" yoffset="22" xadvance="84" page="0" chnl="0" />
<char id="80" x="894" y="219" width="58" height="91" xoffset="11" yoffset="22" xadvance="73" page="0" chnl="0" />
<char id="78" x="952" y="219" width="67" height="91" xoffset="11" yoffset="22" xadvance="90" page="0" chnl="0" />
<char id="77" x="0" y="314" width="81" height="91" xoffset="11" yoffset="22" xadvance="104" page="0" chnl="0" />
<char id="76" x="81" y="314" width="56" height="91" xoffset="11" yoffset="22" xadvance="67" page="0" chnl="0" />
<char id="75" x="137" y="314" width="72" height="91" xoffset="11" yoffset="22" xadvance="79" page="0" chnl="0" />
<char id="73" x="209" y="314" width="13" height="91" xoffset="11" yoffset="22" xadvance="36" page="0" chnl="0" />
<char id="72" x="222" y="314" width="68" height="91" xoffset="11" yoffset="22" xadvance="91" page="0" chnl="0" />
<char id="70" x="290" y="314" width="51" height="91" xoffset="11" yoffset="22" xadvance="70" page="0" chnl="0" />
<char id="69" x="341" y="314" width="57" height="91" xoffset="11" yoffset="22" xadvance="76" page="0" chnl="0" />
<char id="68" x="398" y="314" width="75" height="91" xoffset="11" yoffset="22" xadvance="93" page="0" chnl="0" />
<char id="66" x="473" y="314" width="63" height="91" xoffset="11" yoffset="22" xadvance="83" page="0" chnl="0" />
<char id="65" x="536" y="314" width="81" height="91" xoffset="1" yoffset="22" xadvance="83" page="0" chnl="0" />
<char id="55" x="617" y="314" width="57" height="91" xoffset="10" yoffset="22" xadvance="77" page="0" chnl="0" />
<char id="52" x="674" y="314" width="64" height="91" xoffset="6" yoffset="22" xadvance="77" page="0" chnl="0" />
<char id="49" x="738" y="314" width="53" height="91" xoffset="13" yoffset="22" xadvance="77" page="0" chnl="0" />
<char id="33" x="791" y="314" width="13" height="91" xoffset="18" yoffset="22" xadvance="49" page="0" chnl="0" />
<char id="35" x="804" y="314" width="83" height="90" xoffset="9" yoffset="23" xadvance="101" page="0" chnl="0" />
<char id="116" x="887" y="314" width="42" height="89" xoffset="3" yoffset="24" xadvance="48" page="0" chnl="0" />
<char id="59" x="929" y="314" width="18" height="80" xoffset="9" yoffset="47" xadvance="41" page="0" chnl="0" />
<char id="43" x="0" y="405" width="77" height="80" xoffset="13" yoffset="33" xadvance="101" page="0" chnl="0" />
<char id="115" x="77" y="405" width="51" height="74" xoffset="7" yoffset="41" xadvance="63" page="0" chnl="0" />
<char id="111" x="128" y="405" width="61" height="74" xoffset="7" yoffset="41" xadvance="74" page="0" chnl="0" />
<char id="101" x="189" y="405" width="62" height="74" xoffset="7" yoffset="41" xadvance="74" page="0" chnl="0" />
<char id="99" x="251" y="405" width="53" height="74" xoffset="7" yoffset="41" xadvance="66" page="0" chnl="0" />
<char id="97" x="304" y="405" width="56" height="74" xoffset="7" yoffset="41" xadvance="74" page="0" chnl="0" />
<char id="117" x="360" y="405" width="56" height="72" xoffset="11" yoffset="43" xadvance="77" page="0" chnl="0" />
<char id="114" x="416" y="405" width="39" height="72" xoffset="11" yoffset="41" xadvance="50" page="0" chnl="0" />
<char id="110" x="455" y="405" width="56" height="72" xoffset="11" yoffset="41" xadvance="77" page="0" chnl="0" />
<char id="109" x="511" y="405" width="96" height="72" xoffset="11" yoffset="41" xadvance="117" page="0" chnl="0" />
<char id="122" x="607" y="405" width="54" height="70" xoffset="5" yoffset="43" xadvance="63" page="0" chnl="0" />
<char id="120" x="661" y="405" width="65" height="70" xoffset="3" yoffset="43" xadvance="72" page="0" chnl="0" />
<char id="119" x="726" y="405" width="89" height="70" xoffset="5" yoffset="43" xadvance="99" page="0" chnl="0" />
<char id="118" x="815" y="405" width="65" height="70" xoffset="4" yoffset="43" xadvance="72" page="0" chnl="0" />
<char id="62" x="880" y="405" width="76" height="68" xoffset="13" yoffset="39" xadvance="101" page="0" chnl="0" />
<char id="60" x="0" y="485" width="76" height="68" xoffset="13" yoffset="39" xadvance="101" page="0" chnl="0" />
<char id="58" x="76" y="485" width="13" height="66" xoffset="14" yoffset="47" xadvance="41" page="0" chnl="0" />
<char id="42" x="89" y="485" width="54" height="58" xoffset="4" yoffset="20" xadvance="61" page="0" chnl="0" />
<char id="61" x="143" y="485" width="76" height="38" xoffset="13" yoffset="54" xadvance="101" page="0" chnl="0" />
<char id="94" x="219" y="485" width="76" height="37" xoffset="13" yoffset="22" xadvance="101" page="0" chnl="0" />
<char id="39" x="295" y="485" width="11" height="37" xoffset="11" yoffset="22" xadvance="33" page="0" chnl="0" />
<char id="34" x="306" y="485" width="33" height="37" xoffset="11" yoffset="22" xadvance="56" page="0" chnl="0" />
<char id="44" x="339" y="485" width="18" height="33" xoffset="9" yoffset="94" xadvance="39" page="0" chnl="0" />
<char id="126" x="357" y="485" width="76" height="26" xoffset="13" yoffset="60" xadvance="101" page="0" chnl="0" />
<char id="96" x="433" y="485" width="29" height="26" xoffset="10" yoffset="13" xadvance="61" page="0" chnl="0" />
<char id="46" x="462" y="485" width="13" height="19" xoffset="13" yoffset="94" xadvance="39" page="0" chnl="0" />
<char id="45" x="475" y="485" width="33" height="14" xoffset="6" yoffset="71" xadvance="44" page="0" chnl="0" />
<char id="95" x="508" y="485" width="65" height="12" xoffset="-1" yoffset="129" xadvance="61" page="0" chnl="0" />
</chars>
</font>
