<?xml version="1.0"?>
<font>
<info face="18" size="28" bold="0" italic="0" charset="" unicode="0" stretchH="100" smooth="1" aa="1" padding="0,0,0,0" spacing="1,1"/>
<common lineHeight="35" base="26" scaleW="256" scaleH="256" pages="1" packed="0"/>
<pages>
<page id="0" file="font18.png"/>
</pages>
<chars count="95">
<char id="32" x="0" y="0" width="0" height="0" xoffset="0" yoffset="26" xadvance="9" page="0" chnl="0"/>
<char id="124" x="0" y="0" width="3" height="31" xoffset="4" yoffset="3" xadvance="10" page="0" chnl="0" />
<char id="106" x="3" y="0" width="7" height="30" xoffset="0" yoffset="3" xadvance="8" page="0" chnl="0" />
<char id="125" x="10" y="0" width="12" height="29" xoffset="4" yoffset="3" xadvance="18" page="0" chnl="0" />
<char id="123" x="22" y="0" width="12" height="29" xoffset="4" yoffset="3" xadvance="18" page="0" chnl="0" />
<char id="74" x="34" y="0" width="9" height="29" xoffset="-1" yoffset="4" xadvance="9" page="0" chnl="0" />
<char id="127" x="43" y="0" width="15" height="28" xoffset="1" yoffset="4" xadvance="17" page="0" chnl="0" />
<char id="93" x="58" y="0" width="7" height="28" xoffset="3" yoffset="3" xadvance="11" page="0" chnl="0" />
<char id="91" x="65" y="0" width="7" height="28" xoffset="2" yoffset="3" xadvance="11" page="0" chnl="0" />
<char id="64" x="72" y="0" width="26" height="28" xoffset="2" yoffset="4" xadvance="29" page="0" chnl="0" />
<char id="41" x="98" y="0" width="7" height="28" xoffset="2" yoffset="3" xadvance="11" page="0" chnl="0" />
<char id="40" x="105" y="0" width="7" height="28" xoffset="2" yoffset="3" xadvance="11" page="0" chnl="0" />
<char id="36" x="112" y="0" width="15" height="28" xoffset="2" yoffset="3" xadvance="18" page="0" chnl="0" />
<char id="81" x="127" y="0" width="20" height="27" xoffset="2" yoffset="4" xadvance="23" page="0" chnl="0" />
<char id="92" x="147" y="0" width="10" height="26" xoffset="0" yoffset="4" xadvance="10" page="0" chnl="0" />
<char id="47" x="157" y="0" width="10" height="26" xoffset="0" yoffset="4" xadvance="10" page="0" chnl="0" />
<char id="121" x="167" y="0" width="16" height="24" xoffset="1" yoffset="9" xadvance="17" page="0" chnl="0" />
<char id="113" x="183" y="0" width="15" height="24" xoffset="2" yoffset="9" xadvance="18" page="0" chnl="0" />
<char id="112" x="198" y="0" width="15" height="24" xoffset="3" yoffset="9" xadvance="18" page="0" chnl="0" />
<char id="108" x="213" y="0" width="4" height="24" xoffset="3" yoffset="3" xadvance="8" page="0" chnl="0" />
<char id="107" x="217" y="0" width="15" height="24" xoffset="3" yoffset="3" xadvance="17" page="0" chnl="0" />
<char id="105" x="232" y="0" width="4" height="24" xoffset="3" yoffset="3" xadvance="8" page="0" chnl="0" />
<char id="104" x="236" y="0" width="14" height="24" xoffset="3" yoffset="3" xadvance="18" page="0" chnl="0" />
<char id="103" x="0" y="31" width="15" height="24" xoffset="2" yoffset="9" xadvance="18" page="0" chnl="0" />
<char id="102" x="15" y="31" width="11" height="24" xoffset="1" yoffset="3" xadvance="10" page="0" chnl="0" />
<char id="100" x="26" y="31" width="15" height="24" xoffset="2" yoffset="3" xadvance="18" page="0" chnl="0" />
<char id="98" x="41" y="31" width="15" height="24" xoffset="3" yoffset="3" xadvance="18" page="0" chnl="0" />
<char id="35" x="56" y="31" width="20" height="24" xoffset="2" yoffset="3" xadvance="24" page="0" chnl="0" />
<char id="90" x="76" y="31" width="18" height="23" xoffset="1" yoffset="4" xadvance="20" page="0" chnl="0" />
<char id="89" x="94" y="31" width="18" height="23" xoffset="0" yoffset="4" xadvance="18" page="0" chnl="0" />
<char id="88" x="112" y="31" width="18" height="23" xoffset="1" yoffset="4" xadvance="20" page="0" chnl="0" />
<char id="87" x="130" y="31" width="27" height="23" xoffset="1" yoffset="4" xadvance="28" page="0" chnl="0" />
<char id="86" x="157" y="31" width="20" height="23" xoffset="0" yoffset="4" xadvance="20" page="0" chnl="0" />
<char id="85" x="177" y="31" width="17" height="23" xoffset="3" yoffset="4" xadvance="21" page="0" chnl="0" />
<char id="84" x="194" y="31" width="18" height="23" xoffset="0" yoffset="4" xadvance="18" page="0" chnl="0" />
<char id="83" x="212" y="31" width="16" height="23" xoffset="2" yoffset="4" xadvance="18" page="0" chnl="0" />
<char id="82" x="228" y="31" width="17" height="23" xoffset="3" yoffset="4" xadvance="20" page="0" chnl="0" />
<char id="80" x="0" y="55" width="14" height="23" xoffset="3" yoffset="4" xadvance="17" page="0" chnl="0" />
<char id="79" x="14" y="55" width="20" height="23" xoffset="2" yoffset="4" xadvance="23" page="0" chnl="0" />
<char id="78" x="34" y="55" width="16" height="23" xoffset="3" yoffset="4" xadvance="21" page="0" chnl="0" />
<char id="77" x="50" y="55" width="20" height="23" xoffset="3" yoffset="4" xadvance="25" page="0" chnl="0" />
<char id="76" x="70" y="55" width="14" height="23" xoffset="3" yoffset="4" xadvance="16" page="0" chnl="0" />
<char id="75" x="84" y="55" width="17" height="23" xoffset="3" yoffset="4" xadvance="19" page="0" chnl="0" />
<char id="73" x="101" y="55" width="4" height="23" xoffset="3" yoffset="4" xadvance="9" page="0" chnl="0" />
<char id="72" x="105" y="55" width="17" height="23" xoffset="3" yoffset="4" xadvance="22" page="0" chnl="0" />
<char id="71" x="122" y="55" width="19" height="23" xoffset="2" yoffset="4" xadvance="22" page="0" chnl="0" />
<char id="70" x="141" y="55" width="13" height="23" xoffset="3" yoffset="4" xadvance="17" page="0" chnl="0" />
<char id="69" x="154" y="55" width="14" height="23" xoffset="3" yoffset="4" xadvance="18" page="0" chnl="0" />
<char id="68" x="168" y="55" width="18" height="23" xoffset="3" yoffset="4" xadvance="22" page="0" chnl="0" />
<char id="67" x="186" y="55" width="17" height="23" xoffset="2" yoffset="4" xadvance="20" page="0" chnl="0" />
<char id="66" x="203" y="55" width="15" height="23" xoffset="3" yoffset="4" xadvance="20" page="0" chnl="0" />
<char id="65" x="218" y="55" width="20" height="23" xoffset="0" yoffset="4" xadvance="20" page="0" chnl="0" />
<char id="63" x="238" y="55" width="12" height="23" xoffset="2" yoffset="4" xadvance="15" page="0" chnl="0" />
<char id="57" x="0" y="78" width="15" height="23" xoffset="2" yoffset="4" xadvance="18" page="0" chnl="0" />
<char id="56" x="15" y="78" width="15" height="23" xoffset="2" yoffset="4" xadvance="18" page="0" chnl="0" />
<char id="55" x="30" y="78" width="14" height="23" xoffset="2" yoffset="4" xadvance="18" page="0" chnl="0" />
<char id="54" x="44" y="78" width="15" height="23" xoffset="2" yoffset="4" xadvance="18" page="0" chnl="0" />
<char id="53" x="59" y="78" width="14" height="23" xoffset="2" yoffset="4" xadvance="18" page="0" chnl="0" />
<char id="52" x="73" y="78" width="16" height="23" xoffset="1" yoffset="4" xadvance="18" page="0" chnl="0" />
<char id="51" x="89" y="78" width="14" height="23" xoffset="2" yoffset="4" xadvance="18" page="0" chnl="0" />
<char id="50" x="103" y="78" width="15" height="23" xoffset="2" yoffset="4" xadvance="18" page="0" chnl="0" />
<char id="49" x="118" y="78" width="14" height="23" xoffset="3" yoffset="4" xadvance="18" page="0" chnl="0" />
<char id="48" x="132" y="78" width="15" height="23" xoffset="2" yoffset="4" xadvance="18" page="0" chnl="0" />
<char id="38" x="147" y="78" width="20" height="23" xoffset="2" yoffset="4" xadvance="22" page="0" chnl="0" />
<char id="37" x="167" y="78" width="25" height="23" xoffset="2" yoffset="4" xadvance="27" page="0" chnl="0" />
<char id="33" x="192" y="78" width="4" height="23" xoffset="4" yoffset="4" xadvance="12" page="0" chnl="0" />
<char id="116" x="196" y="78" width="11" height="22" xoffset="1" yoffset="5" xadvance="11" page="0" chnl="0" />
<char id="59" x="207" y="78" width="5" height="21" xoffset="2" yoffset="10" xadvance="10" page="0" chnl="0" />
<char id="43" x="212" y="78" width="19" height="21" xoffset="3" yoffset="6" xadvance="24" page="0" chnl="0" />
<char id="122" x="231" y="78" width="13" height="18" xoffset="1" yoffset="9" xadvance="15" page="0" chnl="0" />
<char id="120" x="0" y="101" width="16" height="18" xoffset="1" yoffset="9" xadvance="17" page="0" chnl="0" />
<char id="119" x="16" y="101" width="22" height="18" xoffset="1" yoffset="9" xadvance="23" page="0" chnl="0" />
<char id="118" x="38" y="101" width="16" height="18" xoffset="1" yoffset="9" xadvance="17" page="0" chnl="0" />
<char id="117" x="54" y="101" width="14" height="18" xoffset="3" yoffset="9" xadvance="18" page="0" chnl="0" />
<char id="115" x="68" y="101" width="13" height="18" xoffset="2" yoffset="9" xadvance="15" page="0" chnl="0" />
<char id="114" x="81" y="101" width="10" height="18" xoffset="3" yoffset="9" xadvance="12" page="0" chnl="0" />
<char id="111" x="91" y="101" width="15" height="18" xoffset="2" yoffset="9" xadvance="18" page="0" chnl="0" />
<char id="110" x="106" y="101" width="14" height="18" xoffset="3" yoffset="9" xadvance="18" page="0" chnl="0" />
<char id="109" x="120" y="101" width="22" height="18" xoffset="3" yoffset="9" xadvance="28" page="0" chnl="0" />
<char id="101" x="142" y="101" width="15" height="18" xoffset="2" yoffset="9" xadvance="18" page="0" chnl="0" />
<char id="99" x="157" y="101" width="13" height="18" xoffset="2" yoffset="9" xadvance="16" page="0" chnl="0" />
<char id="97" x="170" y="101" width="14" height="18" xoffset="2" yoffset="9" xadvance="18" page="0" chnl="0" />
<char id="62" x="184" y="101" width="19" height="18" xoffset="3" yoffset="8" xadvance="24" page="0" chnl="0" />
<char id="60" x="203" y="101" width="19" height="18" xoffset="3" yoffset="8" xadvance="24" page="0" chnl="0" />
<char id="58" x="222" y="101" width="4" height="17" xoffset="3" yoffset="10" xadvance="10" page="0" chnl="0" />
<char id="42" x="226" y="101" width="13" height="15" xoffset="1" yoffset="4" xadvance="15" page="0" chnl="0" />
<char id="94" x="0" y="119" width="19" height="11" xoffset="3" yoffset="4" xadvance="24" page="0" chnl="0" />
<char id="39" x="19" y="119" width="3" height="11" xoffset="3" yoffset="4" xadvance="8" page="0" chnl="0" />
<char id="34" x="22" y="119" width="8" height="11" xoffset="3" yoffset="4" xadvance="13" page="0" chnl="0" />
<char id="61" x="30" y="119" width="19" height="10" xoffset="3" yoffset="12" xadvance="24" page="0" chnl="0" />
<char id="44" x="49" y="119" width="5" height="10" xoffset="2" yoffset="21" xadvance="9" page="0" chnl="0" />
<char id="126" x="54" y="119" width="19" height="9" xoffset="3" yoffset="12" xadvance="24" page="0" chnl="0" />
<char id="96" x="73" y="119" width="8" height="8" xoffset="2" yoffset="2" xadvance="15" page="0" chnl="0" />
<char id="46" x="81" y="119" width="4" height="6" xoffset="3" yoffset="21" xadvance="9" page="0" chnl="0" />
<char id="95" x="85" y="119" width="15" height="5" xoffset="0" yoffset="29" xadvance="15" page="0" chnl="0" />
<char id="45" x="100" y="119" width="8" height="5" xoffset="1" yoffset="15" xadvance="11" page="0" chnl="0" />
</chars>
</font>
