<?xml version="1.0"?>
<font>
<info face="18" size="21" bold="0" italic="0" charset="" unicode="0" stretchH="100" smooth="1" aa="1" padding="0,0,0,0" spacing="1,1"/>
<common lineHeight="26" base="26" scaleW="256" scaleH="128" pages="1" packed="0"/>
<pages>
<page id="0" file="font18.png"/>
</pages>
<chars count="95">
<char id="32" x="0" y="0" width="0" height="0" xoffset="0" yoffset="20" xadvance="7" page="0" chnl="0"/>
<char id="124" x="0" y="0" width="3" height="23" xoffset="3" yoffset="3" xadvance="8" page="0" chnl="0" />
<char id="106" x="3" y="0" width="5" height="22" xoffset="0" yoffset="3" xadvance="6" page="0" chnl="0" />
<char id="127" x="8" y="0" width="12" height="21" xoffset="1" yoffset="4" xadvance="13" page="0" chnl="0" />
<char id="125" x="20" y="0" width="9" height="21" xoffset="3" yoffset="3" xadvance="14" page="0" chnl="0" />
<char id="123" x="29" y="0" width="9" height="21" xoffset="3" yoffset="3" xadvance="14" page="0" chnl="0" />
<char id="93" x="38" y="0" width="5" height="21" xoffset="2" yoffset="3" xadvance="9" page="0" chnl="0" />
<char id="91" x="43" y="0" width="5" height="21" xoffset="2" yoffset="3" xadvance="9" page="0" chnl="0" />
<char id="74" x="48" y="0" width="7" height="21" xoffset="-1" yoffset="4" xadvance="7" page="0" chnl="0" />
<char id="41" x="55" y="0" width="6" height="21" xoffset="2" yoffset="3" xadvance="9" page="0" chnl="0" />
<char id="40" x="61" y="0" width="6" height="21" xoffset="2" yoffset="3" xadvance="9" page="0" chnl="0" />
<char id="36" x="67" y="0" width="12" height="21" xoffset="2" yoffset="3" xadvance="14" page="0" chnl="0" />
<char id="81" x="79" y="0" width="15" height="20" xoffset="1" yoffset="4" xadvance="17" page="0" chnl="0" />
<char id="64" x="94" y="0" width="19" height="20" xoffset="1" yoffset="4" xadvance="22" page="0" chnl="0" />
<char id="92" x="113" y="0" width="8" height="19" xoffset="0" yoffset="4" xadvance="8" page="0" chnl="0" />
<char id="47" x="121" y="0" width="8" height="19" xoffset="0" yoffset="4" xadvance="8" page="0" chnl="0" />
<char id="108" x="129" y="0" width="3" height="18" xoffset="2" yoffset="3" xadvance="6" page="0" chnl="0" />
<char id="107" x="132" y="0" width="11" height="18" xoffset="2" yoffset="3" xadvance="13" page="0" chnl="0" />
<char id="105" x="143" y="0" width="3" height="18" xoffset="2" yoffset="3" xadvance="6" page="0" chnl="0" />
<char id="104" x="146" y="0" width="11" height="18" xoffset="2" yoffset="3" xadvance="14" page="0" chnl="0" />
<char id="102" x="157" y="0" width="9" height="18" xoffset="0" yoffset="3" xadvance="8" page="0" chnl="0" />
<char id="100" x="166" y="0" width="11" height="18" xoffset="1" yoffset="3" xadvance="14" page="0" chnl="0" />
<char id="98" x="177" y="0" width="11" height="18" xoffset="2" yoffset="3" xadvance="14" page="0" chnl="0" />
<char id="121" x="188" y="0" width="12" height="17" xoffset="1" yoffset="8" xadvance="13" page="0" chnl="0" />
<char id="113" x="200" y="0" width="11" height="17" xoffset="1" yoffset="8" xadvance="14" page="0" chnl="0" />
<char id="112" x="211" y="0" width="11" height="17" xoffset="2" yoffset="8" xadvance="14" page="0" chnl="0" />
<char id="103" x="222" y="0" width="11" height="17" xoffset="1" yoffset="8" xadvance="14" page="0" chnl="0" />
<char id="90" x="233" y="0" width="14" height="17" xoffset="1" yoffset="4" xadvance="15" page="0" chnl="0" />
<char id="89" x="0" y="23" width="13" height="17" xoffset="0" yoffset="4" xadvance="13" page="0" chnl="0" />
<char id="88" x="13" y="23" width="14" height="17" xoffset="1" yoffset="4" xadvance="15" page="0" chnl="0" />
<char id="87" x="27" y="23" width="20" height="17" xoffset="1" yoffset="4" xadvance="21" page="0" chnl="0" />
<char id="86" x="47" y="23" width="15" height="17" xoffset="0" yoffset="4" xadvance="15" page="0" chnl="0" />
<char id="85" x="62" y="23" width="13" height="17" xoffset="2" yoffset="4" xadvance="16" page="0" chnl="0" />
<char id="84" x="75" y="23" width="13" height="17" xoffset="0" yoffset="4" xadvance="13" page="0" chnl="0" />
<char id="83" x="88" y="23" width="13" height="17" xoffset="1" yoffset="4" xadvance="14" page="0" chnl="0" />
<char id="82" x="101" y="23" width="13" height="17" xoffset="2" yoffset="4" xadvance="15" page="0" chnl="0" />
<char id="80" x="114" y="23" width="11" height="17" xoffset="2" yoffset="4" xadvance="13" page="0" chnl="0" />
<char id="79" x="125" y="23" width="15" height="17" xoffset="1" yoffset="4" xadvance="17" page="0" chnl="0" />
<char id="78" x="140" y="23" width="13" height="17" xoffset="2" yoffset="4" xadvance="16" page="0" chnl="0" />
<char id="77" x="153" y="23" width="15" height="17" xoffset="2" yoffset="4" xadvance="19" page="0" chnl="0" />
<char id="76" x="168" y="23" width="11" height="17" xoffset="2" yoffset="4" xadvance="12" page="0" chnl="0" />
<char id="75" x="179" y="23" width="13" height="17" xoffset="2" yoffset="4" xadvance="14" page="0" chnl="0" />
<char id="73" x="192" y="23" width="3" height="17" xoffset="2" yoffset="4" xadvance="7" page="0" chnl="0" />
<char id="72" x="195" y="23" width="13" height="17" xoffset="2" yoffset="4" xadvance="16" page="0" chnl="0" />
<char id="71" x="208" y="23" width="14" height="17" xoffset="1" yoffset="4" xadvance="17" page="0" chnl="0" />
<char id="70" x="222" y="23" width="10" height="17" xoffset="2" yoffset="4" xadvance="13" page="0" chnl="0" />
<char id="69" x="232" y="23" width="11" height="17" xoffset="2" yoffset="4" xadvance="14" page="0" chnl="0" />
<char id="68" x="0" y="40" width="14" height="17" xoffset="2" yoffset="4" xadvance="17" page="0" chnl="0" />
<char id="67" x="14" y="40" width="13" height="17" xoffset="1" yoffset="4" xadvance="15" page="0" chnl="0" />
<char id="66" x="27" y="40" width="12" height="17" xoffset="2" yoffset="4" xadvance="15" page="0" chnl="0" />
<char id="65" x="39" y="40" width="15" height="17" xoffset="0" yoffset="4" xadvance="15" page="0" chnl="0" />
<char id="63" x="54" y="40" width="9" height="17" xoffset="2" yoffset="4" xadvance="12" page="0" chnl="0" />
<char id="57" x="63" y="40" width="12" height="17" xoffset="1" yoffset="4" xadvance="14" page="0" chnl="0" />
<char id="56" x="75" y="40" width="12" height="17" xoffset="1" yoffset="4" xadvance="14" page="0" chnl="0" />
<char id="55" x="87" y="40" width="11" height="17" xoffset="2" yoffset="4" xadvance="14" page="0" chnl="0" />
<char id="54" x="98" y="40" width="12" height="17" xoffset="1" yoffset="4" xadvance="14" page="0" chnl="0" />
<char id="53" x="110" y="40" width="11" height="17" xoffset="2" yoffset="4" xadvance="14" page="0" chnl="0" />
<char id="52" x="121" y="40" width="12" height="17" xoffset="1" yoffset="4" xadvance="14" page="0" chnl="0" />
<char id="51" x="133" y="40" width="11" height="17" xoffset="2" yoffset="4" xadvance="14" page="0" chnl="0" />
<char id="50" x="144" y="40" width="12" height="17" xoffset="1" yoffset="4" xadvance="14" page="0" chnl="0" />
<char id="49" x="156" y="40" width="10" height="17" xoffset="2" yoffset="4" xadvance="14" page="0" chnl="0" />
<char id="48" x="166" y="40" width="12" height="17" xoffset="1" yoffset="4" xadvance="14" page="0" chnl="0" />
<char id="38" x="178" y="40" width="15" height="17" xoffset="1" yoffset="4" xadvance="17" page="0" chnl="0" />
<char id="37" x="193" y="40" width="19" height="17" xoffset="1" yoffset="4" xadvance="20" page="0" chnl="0" />
<char id="35" x="212" y="40" width="15" height="17" xoffset="2" yoffset="4" xadvance="18" page="0" chnl="0" />
<char id="33" x="227" y="40" width="3" height="17" xoffset="3" yoffset="4" xadvance="9" page="0" chnl="0" />
<char id="116" x="230" y="40" width="8" height="16" xoffset="1" yoffset="5" xadvance="9" page="0" chnl="0" />
<char id="43" x="238" y="40" width="15" height="16" xoffset="2" yoffset="5" xadvance="18" page="0" chnl="0" />
<char id="59" x="0" y="57" width="4" height="15" xoffset="1" yoffset="8" xadvance="8" page="0" chnl="0" />
<char id="122" x="4" y="57" width="10" height="13" xoffset="1" yoffset="8" xadvance="12" page="0" chnl="0" />
<char id="120" x="14" y="57" width="12" height="13" xoffset="1" yoffset="8" xadvance="13" page="0" chnl="0" />
<char id="119" x="26" y="57" width="16" height="13" xoffset="1" yoffset="8" xadvance="18" page="0" chnl="0" />
<char id="118" x="42" y="57" width="12" height="13" xoffset="0" yoffset="8" xadvance="13" page="0" chnl="0" />
<char id="117" x="54" y="57" width="11" height="13" xoffset="2" yoffset="8" xadvance="14" page="0" chnl="0" />
<char id="115" x="65" y="57" width="11" height="13" xoffset="1" yoffset="8" xadvance="11" page="0" chnl="0" />
<char id="114" x="76" y="57" width="8" height="13" xoffset="2" yoffset="8" xadvance="9" page="0" chnl="0" />
<char id="111" x="84" y="57" width="12" height="13" xoffset="1" yoffset="8" xadvance="13" page="0" chnl="0" />
<char id="110" x="96" y="57" width="11" height="13" xoffset="2" yoffset="8" xadvance="14" page="0" chnl="0" />
<char id="109" x="107" y="57" width="17" height="13" xoffset="2" yoffset="8" xadvance="21" page="0" chnl="0" />
<char id="101" x="124" y="57" width="12" height="13" xoffset="1" yoffset="8" xadvance="13" page="0" chnl="0" />
<char id="99" x="136" y="57" width="10" height="13" xoffset="1" yoffset="8" xadvance="12" page="0" chnl="0" />
<char id="97" x="146" y="57" width="11" height="13" xoffset="1" yoffset="8" xadvance="13" page="0" chnl="0" />
<char id="62" x="157" y="57" width="14" height="13" xoffset="2" yoffset="7" xadvance="18" page="0" chnl="0" />
<char id="60" x="171" y="57" width="14" height="13" xoffset="2" yoffset="7" xadvance="18" page="0" chnl="0" />
<char id="58" x="185" y="57" width="3" height="13" xoffset="2" yoffset="8" xadvance="8" page="0" chnl="0" />
<char id="42" x="188" y="57" width="10" height="12" xoffset="1" yoffset="4" xadvance="11" page="0" chnl="0" />
<char id="94" x="198" y="57" width="14" height="8" xoffset="2" yoffset="4" xadvance="18" page="0" chnl="0" />
<char id="61" x="212" y="57" width="14" height="8" xoffset="2" yoffset="10" xadvance="18" page="0" chnl="0" />
<char id="39" x="226" y="57" width="3" height="8" xoffset="2" yoffset="4" xadvance="6" page="0" chnl="0" />
<char id="34" x="229" y="57" width="7" height="8" xoffset="2" yoffset="4" xadvance="10" page="0" chnl="0" />
<char id="126" x="236" y="57" width="14" height="7" xoffset="2" yoffset="10" xadvance="18" page="0" chnl="0" />
<char id="44" x="250" y="57" width="4" height="7" xoffset="1" yoffset="16" xadvance="7" page="0" chnl="0" />
<char id="96" x="0" y="72" width="6" height="6" xoffset="2" yoffset="2" xadvance="11" page="0" chnl="0" />
<char id="46" x="6" y="72" width="3" height="5" xoffset="2" yoffset="16" xadvance="7" page="0" chnl="0" />
<char id="95" x="9" y="72" width="12" height="4" xoffset="0" yoffset="22" xadvance="11" page="0" chnl="0" />
<char id="45" x="21" y="72" width="7" height="4" xoffset="1" yoffset="12" xadvance="8" page="0" chnl="0" />
</chars>
</font>
