<?xml version="1.0"?>
<font>
<info face="18" size="14" bold="0" italic="0" charset="" unicode="0" stretchH="100" smooth="1" aa="1" padding="0,0,0,0" spacing="1,1"/>
<common lineHeight="18" base="26" scaleW="128" scaleH="128" pages="1" packed="0"/>
<pages>
<page id="0" file="font18.png"/>
</pages>
<chars count="95">
<char id="32" x="0" y="0" width="0" height="0" xoffset="0" yoffset="13" xadvance="5" page="0" chnl="0"/>
<char id="124" x="0" y="0" width="2" height="16" xoffset="2" yoffset="1" xadvance="5" page="0" chnl="0" />
<char id="106" x="2" y="0" width="4" height="16" xoffset="-1" yoffset="1" xadvance="4" page="0" chnl="0" />
<char id="125" x="6" y="0" width="6" height="15" xoffset="3" yoffset="1" xadvance="9" page="0" chnl="0" />
<char id="123" x="12" y="0" width="6" height="15" xoffset="2" yoffset="1" xadvance="9" page="0" chnl="0" />
<char id="74" x="18" y="0" width="4" height="15" xoffset="-1" yoffset="2" xadvance="5" page="0" chnl="0" />
<char id="36" x="22" y="0" width="8" height="15" xoffset="1" yoffset="1" xadvance="9" page="0" chnl="0" />
<char id="127" x="30" y="0" width="8" height="14" xoffset="1" yoffset="2" xadvance="9" page="0" chnl="0" />
<char id="93" x="38" y="0" width="4" height="14" xoffset="1" yoffset="1" xadvance="6" page="0" chnl="0" />
<char id="92" x="42" y="0" width="6" height="14" xoffset="0" yoffset="2" xadvance="5" page="0" chnl="0" />
<char id="91" x="48" y="0" width="4" height="14" xoffset="1" yoffset="1" xadvance="6" page="0" chnl="0" />
<char id="81" x="52" y="0" width="10" height="14" xoffset="1" yoffset="2" xadvance="12" page="0" chnl="0" />
<char id="64" x="62" y="0" width="13" height="14" xoffset="1" yoffset="2" xadvance="15" page="0" chnl="0" />
<char id="47" x="75" y="0" width="6" height="14" xoffset="0" yoffset="2" xadvance="5" page="0" chnl="0" />
<char id="41" x="81" y="0" width="4" height="14" xoffset="1" yoffset="1" xadvance="6" page="0" chnl="0" />
<char id="40" x="85" y="0" width="4" height="14" xoffset="1" yoffset="1" xadvance="6" page="0" chnl="0" />
<char id="121" x="89" y="0" width="10" height="13" xoffset="-1" yoffset="4" xadvance="9" page="0" chnl="0" />
<char id="113" x="99" y="0" width="8" height="13" xoffset="1" yoffset="4" xadvance="9" page="0" chnl="0" />
<char id="112" x="107" y="0" width="8" height="13" xoffset="1" yoffset="4" xadvance="9" page="0" chnl="0" />
<char id="108" x="115" y="0" width="2" height="13" xoffset="1" yoffset="1" xadvance="4" page="0" chnl="0" />
<char id="107" x="117" y="0" width="8" height="13" xoffset="1" yoffset="1" xadvance="9" page="0" chnl="0" />
<char id="105" x="125" y="0" width="2" height="13" xoffset="1" yoffset="1" xadvance="4" page="0" chnl="0" />
<char id="104" x="0" y="16" width="8" height="13" xoffset="1" yoffset="1" xadvance="9" page="0" chnl="0" />
<char id="103" x="8" y="16" width="8" height="13" xoffset="1" yoffset="4" xadvance="9" page="0" chnl="0" />
<char id="102" x="16" y="16" width="5" height="13" xoffset="0" yoffset="1" xadvance="5" page="0" chnl="0" />
<char id="100" x="21" y="16" width="8" height="13" xoffset="1" yoffset="1" xadvance="9" page="0" chnl="0" />
<char id="98" x="29" y="16" width="8" height="13" xoffset="1" yoffset="1" xadvance="9" page="0" chnl="0" />
<char id="116" x="37" y="16" width="6" height="12" xoffset="0" yoffset="2" xadvance="6" page="0" chnl="0" />
<char id="90" x="43" y="16" width="9" height="12" xoffset="1" yoffset="2" xadvance="10" page="0" chnl="0" />
<char id="89" x="52" y="16" width="10" height="12" xoffset="0" yoffset="2" xadvance="9" page="0" chnl="0" />
<char id="88" x="62" y="16" width="10" height="12" xoffset="1" yoffset="2" xadvance="10" page="0" chnl="0" />
<char id="87" x="72" y="16" width="14" height="12" xoffset="0" yoffset="2" xadvance="14" page="0" chnl="0" />
<char id="86" x="86" y="16" width="10" height="12" xoffset="0" yoffset="2" xadvance="10" page="0" chnl="0" />
<char id="85" x="96" y="16" width="9" height="12" xoffset="1" yoffset="2" xadvance="11" page="0" chnl="0" />
<char id="84" x="105" y="16" width="10" height="12" xoffset="0" yoffset="2" xadvance="9" page="0" chnl="0" />
<char id="83" x="115" y="16" width="8" height="12" xoffset="1" yoffset="2" xadvance="9" page="0" chnl="0" />
<char id="82" x="0" y="29" width="9" height="12" xoffset="1" yoffset="2" xadvance="10" page="0" chnl="0" />
<char id="80" x="9" y="29" width="8" height="12" xoffset="1" yoffset="2" xadvance="9" page="0" chnl="0" />
<char id="79" x="17" y="29" width="10" height="12" xoffset="1" yoffset="2" xadvance="12" page="0" chnl="0" />
<char id="78" x="27" y="29" width="9" height="12" xoffset="1" yoffset="2" xadvance="11" page="0" chnl="0" />
<char id="77" x="36" y="29" width="11" height="12" xoffset="1" yoffset="2" xadvance="13" page="0" chnl="0" />
<char id="76" x="47" y="29" width="7" height="12" xoffset="1" yoffset="2" xadvance="8" page="0" chnl="0" />
<char id="75" x="54" y="29" width="9" height="12" xoffset="1" yoffset="2" xadvance="10" page="0" chnl="0" />
<char id="73" x="63" y="29" width="2" height="12" xoffset="1" yoffset="2" xadvance="5" page="0" chnl="0" />
<char id="72" x="65" y="29" width="9" height="12" xoffset="1" yoffset="2" xadvance="11" page="0" chnl="0" />
<char id="71" x="74" y="29" width="10" height="12" xoffset="1" yoffset="2" xadvance="11" page="0" chnl="0" />
<char id="70" x="84" y="29" width="7" height="12" xoffset="1" yoffset="2" xadvance="9" page="0" chnl="0" />
<char id="69" x="91" y="29" width="8" height="12" xoffset="1" yoffset="2" xadvance="9" page="0" chnl="0" />
<char id="68" x="99" y="29" width="10" height="12" xoffset="1" yoffset="2" xadvance="11" page="0" chnl="0" />
<char id="67" x="109" y="29" width="9" height="12" xoffset="1" yoffset="2" xadvance="10" page="0" chnl="0" />
<char id="66" x="118" y="29" width="9" height="12" xoffset="1" yoffset="2" xadvance="10" page="0" chnl="0" />
<char id="65" x="0" y="41" width="10" height="12" xoffset="0" yoffset="2" xadvance="10" page="0" chnl="0" />
<char id="63" x="10" y="41" width="6" height="12" xoffset="1" yoffset="2" xadvance="8" page="0" chnl="0" />
<char id="57" x="16" y="41" width="8" height="12" xoffset="1" yoffset="2" xadvance="9" page="0" chnl="0" />
<char id="56" x="24" y="41" width="8" height="12" xoffset="1" yoffset="2" xadvance="9" page="0" chnl="0" />
<char id="55" x="32" y="41" width="8" height="12" xoffset="1" yoffset="2" xadvance="9" page="0" chnl="0" />
<char id="54" x="40" y="41" width="8" height="12" xoffset="1" yoffset="2" xadvance="9" page="0" chnl="0" />
<char id="53" x="48" y="41" width="8" height="12" xoffset="1" yoffset="2" xadvance="9" page="0" chnl="0" />
<char id="52" x="56" y="41" width="8" height="12" xoffset="1" yoffset="2" xadvance="9" page="0" chnl="0" />
<char id="51" x="64" y="41" width="8" height="12" xoffset="1" yoffset="2" xadvance="9" page="0" chnl="0" />
<char id="50" x="72" y="41" width="8" height="12" xoffset="1" yoffset="2" xadvance="9" page="0" chnl="0" />
<char id="49" x="80" y="41" width="6" height="12" xoffset="2" yoffset="2" xadvance="9" page="0" chnl="0" />
<char id="48" x="86" y="41" width="8" height="12" xoffset="1" yoffset="2" xadvance="9" page="0" chnl="0" />
<char id="38" x="94" y="41" width="12" height="12" xoffset="1" yoffset="2" xadvance="11" page="0" chnl="0" />
<char id="37" x="106" y="41" width="13" height="12" xoffset="0" yoffset="2" xadvance="14" page="0" chnl="0" />
<char id="35" x="0" y="53" width="11" height="12" xoffset="1" yoffset="2" xadvance="12" page="0" chnl="0" />
<char id="33" x="11" y="53" width="2" height="12" xoffset="2" yoffset="2" xadvance="6" page="0" chnl="0" />
<char id="43" x="13" y="53" width="10" height="11" xoffset="1" yoffset="3" xadvance="12" page="0" chnl="0" />
<char id="122" x="23" y="53" width="7" height="10" xoffset="1" yoffset="4" xadvance="8" page="0" chnl="0" />
<char id="120" x="30" y="53" width="10" height="10" xoffset="-1" yoffset="4" xadvance="9" page="0" chnl="0" />
<char id="119" x="40" y="53" width="12" height="10" xoffset="0" yoffset="4" xadvance="12" page="0" chnl="0" />
<char id="118" x="52" y="53" width="10" height="10" xoffset="-1" yoffset="4" xadvance="9" page="0" chnl="0" />
<char id="117" x="62" y="53" width="8" height="10" xoffset="1" yoffset="4" xadvance="9" page="0" chnl="0" />
<char id="115" x="70" y="53" width="7" height="10" xoffset="1" yoffset="4" xadvance="8" page="0" chnl="0" />
<char id="114" x="77" y="53" width="5" height="10" xoffset="1" yoffset="4" xadvance="6" page="0" chnl="0" />
<char id="111" x="82" y="53" width="8" height="10" xoffset="1" yoffset="4" xadvance="9" page="0" chnl="0" />
<char id="110" x="90" y="53" width="8" height="10" xoffset="1" yoffset="4" xadvance="9" page="0" chnl="0" />
<char id="109" x="98" y="53" width="12" height="10" xoffset="1" yoffset="4" xadvance="14" page="0" chnl="0" />
<char id="101" x="110" y="53" width="8" height="10" xoffset="1" yoffset="4" xadvance="9" page="0" chnl="0" />
<char id="99" x="118" y="53" width="7" height="10" xoffset="1" yoffset="4" xadvance="8" page="0" chnl="0" />
<char id="97" x="0" y="65" width="7" height="10" xoffset="1" yoffset="4" xadvance="9" page="0" chnl="0" />
<char id="62" x="7" y="65" width="10" height="10" xoffset="1" yoffset="4" xadvance="12" page="0" chnl="0" />
<char id="60" x="17" y="65" width="10" height="10" xoffset="1" yoffset="4" xadvance="12" page="0" chnl="0" />
<char id="59" x="27" y="65" width="3" height="10" xoffset="1" yoffset="5" xadvance="5" page="0" chnl="0" />
<char id="58" x="30" y="65" width="2" height="9" xoffset="2" yoffset="5" xadvance="5" page="0" chnl="0" />
<char id="42" x="32" y="65" width="8" height="8" xoffset="0" yoffset="2" xadvance="8" page="0" chnl="0" />
<char id="126" x="40" y="65" width="10" height="6" xoffset="1" yoffset="6" xadvance="12" page="0" chnl="0" />
<char id="94" x="50" y="65" width="10" height="6" xoffset="1" yoffset="2" xadvance="12" page="0" chnl="0" />
<char id="61" x="60" y="65" width="10" height="6" xoffset="1" yoffset="5" xadvance="12" page="0" chnl="0" />
<char id="39" x="70" y="65" width="2" height="6" xoffset="1" yoffset="2" xadvance="4" page="0" chnl="0" />
<char id="34" x="72" y="65" width="4" height="6" xoffset="1" yoffset="2" xadvance="7" page="0" chnl="0" />
<char id="96" x="76" y="65" width="4" height="5" xoffset="1" yoffset="0" xadvance="8" page="0" chnl="0" />
<char id="44" x="80" y="65" width="3" height="5" xoffset="1" yoffset="10" xadvance="5" page="0" chnl="0" />
<char id="46" x="83" y="65" width="2" height="4" xoffset="2" yoffset="10" xadvance="5" page="0" chnl="0" />
<char id="95" x="85" y="65" width="8" height="3" xoffset="0" yoffset="14" xadvance="8" page="0" chnl="0" />
<char id="45" x="93" y="65" width="5" height="3" xoffset="1" yoffset="8" xadvance="6" page="0" chnl="0" />
</chars>
</font>
