<?xml version="1.0"?>
<font>
<info face="23" size="320" bold="0" italic="0" charset="" unicode="0" stretchH="100" smooth="1" aa="1" padding="0,0,0,0" spacing="1,1"/>
<common lineHeight="328" base="26" scaleW="2048" scaleH="2048" pages="1" packed="0"/>
<pages>
<page id="0" file="font23.png"/>
</pages>
<chars count="82">
<char id="32" x="0" y="0" width="0" height="0" xoffset="0" yoffset="256" xadvance="101" page="0" chnl="0"/>
<char id="40" x="0" y="0" width="145" height="320" xoffset="-1" yoffset="28" xadvance="153" page="0" chnl="0" />
<char id="41" x="145" y="0" width="146" height="319" xoffset="0" yoffset="19" xadvance="154" page="0" chnl="0" />
<char id="33" x="291" y="0" width="76" height="301" xoffset="0" yoffset="-40" xadvance="84" page="0" chnl="0" />
<char id="77" x="367" y="0" width="323" height="292" xoffset="0" yoffset="-31" xadvance="226" page="0" chnl="0" />
<char id="76" x="690" y="0" width="146" height="291" xoffset="0" yoffset="-30" xadvance="155" page="0" chnl="0" />
<char id="72" x="836" y="0" width="242" height="290" xoffset="0" yoffset="-29" xadvance="152" page="0" chnl="0" />
<char id="85" x="1078" y="0" width="291" height="288" xoffset="-1" yoffset="-27" xadvance="172" page="0" chnl="0" />
<char id="63" x="1369" y="0" width="179" height="287" xoffset="0" yoffset="-26" xadvance="188" page="0" chnl="0" />
<char id="74" x="1548" y="0" width="227" height="284" xoffset="-1" yoffset="-23" xadvance="128" page="0" chnl="0" />
<char id="78" x="1775" y="0" width="265" height="281" xoffset="0" yoffset="-20" xadvance="188" page="0" chnl="0" />
<char id="75" x="0" y="320" width="244" height="276" xoffset="-1" yoffset="-15" xadvance="207" page="0" chnl="0" />
<char id="84" x="244" y="320" width="273" height="269" xoffset="-1" yoffset="-7" xadvance="140" page="0" chnl="0" />
<char id="81" x="517" y="320" width="205" height="269" xoffset="-1" yoffset="32" xadvance="178" page="0" chnl="0" />
<char id="88" x="722" y="320" width="277" height="268" xoffset="0" yoffset="-5" xadvance="170" page="0" chnl="0" />
<char id="87" x="999" y="320" width="323" height="268" xoffset="-1" yoffset="-7" xadvance="230" page="0" chnl="0" />
<char id="86" x="1322" y="320" width="341" height="267" xoffset="0" yoffset="-5" xadvance="180" page="0" chnl="0" />
<char id="80" x="1663" y="320" width="217" height="267" xoffset="0" yoffset="-4" xadvance="226" page="0" chnl="0" />
<char id="66" x="0" y="596" width="196" height="267" xoffset="0" yoffset="-5" xadvance="204" page="0" chnl="0" />
<char id="89" x="196" y="596" width="247" height="266" xoffset="-1" yoffset="-5" xadvance="143" page="0" chnl="0" />
<char id="82" x="443" y="596" width="233" height="266" xoffset="-1" yoffset="-4" xadvance="223" page="0" chnl="0" />
<char id="73" x="676" y="596" width="219" height="266" xoffset="0" yoffset="-4" xadvance="112" page="0" chnl="0" />
<char id="70" x="895" y="596" width="192" height="266" xoffset="-1" yoffset="-4" xadvance="200" page="0" chnl="0" />
<char id="68" x="1087" y="596" width="215" height="266" xoffset="0" yoffset="-5" xadvance="224" page="0" chnl="0" />
<char id="69" x="1302" y="596" width="206" height="265" xoffset="-1" yoffset="-4" xadvance="214" page="0" chnl="0" />
<char id="36" x="1508" y="596" width="160" height="259" xoffset="-1" yoffset="2" xadvance="168" page="0" chnl="0" />
<char id="79" x="1668" y="596" width="151" height="229" xoffset="0" yoffset="33" xadvance="159" page="0" chnl="0" />
<char id="47" x="1819" y="596" width="160" height="224" xoffset="0" yoffset="37" xadvance="168" page="0" chnl="0" />
<char id="65" x="0" y="863" width="200" height="216" xoffset="-1" yoffset="46" xadvance="186" page="0" chnl="0" />
<char id="67" x="200" y="863" width="152" height="214" xoffset="0" yoffset="47" xadvance="160" page="0" chnl="0" />
<char id="90" x="352" y="863" width="194" height="210" xoffset="0" yoffset="51" xadvance="203" page="0" chnl="0" />
<char id="83" x="546" y="863" width="148" height="207" xoffset="-1" yoffset="55" xadvance="156" page="0" chnl="0" />
<char id="71" x="694" y="863" width="140" height="206" xoffset="0" yoffset="57" xadvance="148" page="0" chnl="0" />
<char id="57" x="834" y="863" width="116" height="202" xoffset="0" yoffset="67" xadvance="124" page="0" chnl="0" />
<char id="114" x="950" y="863" width="179" height="200" xoffset="0" yoffset="94" xadvance="116" page="0" chnl="0" />
<char id="38" x="1129" y="863" width="191" height="199" xoffset="0" yoffset="62" xadvance="200" page="0" chnl="0" />
<char id="107" x="1320" y="863" width="166" height="197" xoffset="-1" yoffset="101" xadvance="174" page="0" chnl="0" />
<char id="52" x="1486" y="863" width="112" height="196" xoffset="0" yoffset="69" xadvance="121" page="0" chnl="0" />
<char id="48" x="1598" y="863" width="95" height="193" xoffset="0" yoffset="73" xadvance="104" page="0" chnl="0" />
<char id="50" x="1693" y="863" width="121" height="192" xoffset="-1" yoffset="72" xadvance="128" page="0" chnl="0" />
<char id="53" x="1814" y="863" width="127" height="191" xoffset="0" yoffset="69" xadvance="135" page="0" chnl="0" />
<char id="56" x="0" y="1079" width="115" height="188" xoffset="0" yoffset="71" xadvance="123" page="0" chnl="0" />
<char id="54" x="115" y="1079" width="121" height="188" xoffset="0" yoffset="79" xadvance="130" page="0" chnl="0" />
<char id="49" x="236" y="1079" width="83" height="188" xoffset="0" yoffset="71" xadvance="92" page="0" chnl="0" />
<char id="51" x="319" y="1079" width="112" height="185" xoffset="0" yoffset="73" xadvance="121" page="0" chnl="0" />
<char id="55" x="431" y="1079" width="125" height="181" xoffset="-1" yoffset="73" xadvance="132" page="0" chnl="0" />
<char id="113" x="556" y="1079" width="112" height="168" xoffset="0" yoffset="95" xadvance="121" page="0" chnl="0" />
<char id="98" x="668" y="1079" width="122" height="167" xoffset="0" yoffset="94" xadvance="131" page="0" chnl="0" />
<char id="100" x="790" y="1079" width="114" height="165" xoffset="0" yoffset="96" xadvance="123" page="0" chnl="0" />
<char id="117" x="904" y="1079" width="121" height="164" xoffset="0" yoffset="99" xadvance="130" page="0" chnl="0" />
<char id="120" x="1025" y="1079" width="116" height="163" xoffset="0" yoffset="100" xadvance="124" page="0" chnl="0" />
<char id="122" x="1141" y="1079" width="138" height="161" xoffset="0" yoffset="100" xadvance="146" page="0" chnl="0" />
<char id="116" x="1279" y="1079" width="114" height="161" xoffset="0" yoffset="100" xadvance="123" page="0" chnl="0" />
<char id="103" x="1393" y="1079" width="117" height="161" xoffset="0" yoffset="100" xadvance="126" page="0" chnl="0" />
<char id="102" x="1510" y="1079" width="100" height="160" xoffset="0" yoffset="102" xadvance="109" page="0" chnl="0" />
<char id="112" x="1610" y="1079" width="125" height="159" xoffset="0" yoffset="103" xadvance="134" page="0" chnl="0" />
<char id="108" x="1735" y="1079" width="104" height="159" xoffset="0" yoffset="102" xadvance="112" page="0" chnl="0" />
<char id="106" x="1839" y="1079" width="86" height="159" xoffset="0" yoffset="101" xadvance="94" page="0" chnl="0" />
<char id="104" x="0" y="1267" width="149" height="159" xoffset="-1" yoffset="105" xadvance="156" page="0" chnl="0" />
<char id="101" x="149" y="1267" width="97" height="159" xoffset="-1" yoffset="103" xadvance="105" page="0" chnl="0" />
<char id="43" x="246" y="1267" width="155" height="159" xoffset="0" yoffset="102" xadvance="170" page="0" chnl="0" />
<char id="109" x="401" y="1267" width="156" height="158" xoffset="-1" yoffset="104" xadvance="164" page="0" chnl="0" />
<char id="97" x="557" y="1267" width="108" height="158" xoffset="0" yoffset="104" xadvance="116" page="0" chnl="0" />
<char id="110" x="665" y="1267" width="120" height="155" xoffset="0" yoffset="109" xadvance="129" page="0" chnl="0" />
<char id="121" x="785" y="1267" width="122" height="154" xoffset="-1" yoffset="108" xadvance="130" page="0" chnl="0" />
<char id="115" x="907" y="1267" width="93" height="154" xoffset="0" yoffset="106" xadvance="102" page="0" chnl="0" />
<char id="64" x="1000" y="1267" width="223" height="154" xoffset="-1" yoffset="107" xadvance="230" page="0" chnl="0" />
<char id="105" x="1223" y="1267" width="57" height="152" xoffset="0" yoffset="109" xadvance="66" page="0" chnl="0" />
<char id="37" x="1280" y="1267" width="145" height="152" xoffset="-1" yoffset="109" xadvance="152" page="0" chnl="0" />
<char id="99" x="1425" y="1267" width="108" height="151" xoffset="0" yoffset="110" xadvance="116" page="0" chnl="0" />
<char id="111" x="1533" y="1267" width="94" height="149" xoffset="-5" yoffset="112" xadvance="93" page="0" chnl="0" />
<char id="119" x="1627" y="1267" width="184" height="145" xoffset="0" yoffset="116" xadvance="192" page="0" chnl="0" />
<char id="35" x="1811" y="1267" width="133" height="143" xoffset="-1" yoffset="66" xadvance="140" page="0" chnl="0" />
<char id="118" x="0" y="1426" width="129" height="142" xoffset="0" yoffset="120" xadvance="137" page="0" chnl="0" />
<char id="59" x="129" y="1426" width="50" height="134" xoffset="0" yoffset="103" xadvance="59" page="0" chnl="0" />
<char id="58" x="179" y="1426" width="44" height="103" xoffset="0" yoffset="104" xadvance="52" page="0" chnl="0" />
<char id="61" x="223" y="1426" width="156" height="99" xoffset="-1" yoffset="116" xadvance="170" page="0" chnl="0" />
<char id="44" x="379" y="1426" width="45" height="75" xoffset="0" yoffset="214" xadvance="54" page="0" chnl="0" />
<char id="39" x="424" y="1426" width="36" height="73" xoffset="0" yoffset="19" xadvance="45" page="0" chnl="0" />
<char id="34" x="460" y="1426" width="81" height="73" xoffset="0" yoffset="19" xadvance="90" page="0" chnl="0" />
<char id="95" x="541" y="1426" width="100" height="50" xoffset="0" yoffset="241" xadvance="115" page="0" chnl="0" />
<char id="45" x="641" y="1426" width="155" height="50" xoffset="0" yoffset="154" xadvance="170" page="0" chnl="0" />
<char id="46" x="796" y="1426" width="44" height="42" xoffset="-1" yoffset="219" xadvance="51" page="0" chnl="0" />
</chars>
</font>
