<?xml version="1.0"?>
<font>
<info face="18" size="56" bold="0" italic="0" charset="" unicode="0" stretchH="100" smooth="1" aa="1" padding="0,0,0,0" spacing="1,1"/>
<common lineHeight="70" base="26" scaleW="512" scaleH="512" pages="1" packed="0"/>
<pages>
<page id="0" file="font18.png"/>
</pages>
<chars count="95">
<char id="32" x="0" y="0" width="0" height="0" xoffset="0" yoffset="52" xadvance="18" page="0" chnl="0"/>
<char id="124" x="0" y="0" width="6" height="61" xoffset="7" yoffset="5" xadvance="19" page="0" chnl="0" />
<char id="106" x="6" y="0" width="13" height="60" xoffset="-1" yoffset="5" xadvance="16" page="0" chnl="0" />
<char id="125" x="19" y="0" width="23" height="57" xoffset="7" yoffset="5" xadvance="36" page="0" chnl="0" />
<char id="123" x="42" y="0" width="23" height="57" xoffset="7" yoffset="5" xadvance="36" page="0" chnl="0" />
<char id="74" x="65" y="0" width="16" height="57" xoffset="-3" yoffset="7" xadvance="17" page="0" chnl="0" />
<char id="93" x="81" y="0" width="13" height="55" xoffset="5" yoffset="5" xadvance="22" page="0" chnl="0" />
<char id="91" x="94" y="0" width="13" height="55" xoffset="5" yoffset="5" xadvance="22" page="0" chnl="0" />
<char id="41" x="107" y="0" width="14" height="55" xoffset="4" yoffset="5" xadvance="22" page="0" chnl="0" />
<char id="40" x="121" y="0" width="14" height="55" xoffset="5" yoffset="5" xadvance="22" page="0" chnl="0" />
<char id="36" x="135" y="0" width="29" height="55" xoffset="4" yoffset="6" xadvance="36" page="0" chnl="0" />
<char id="127" x="164" y="0" width="29" height="54" xoffset="3" yoffset="9" xadvance="34" page="0" chnl="0" />
<char id="81" x="193" y="0" width="39" height="54" xoffset="3" yoffset="6" xadvance="45" page="0" chnl="0" />
<char id="64" x="232" y="0" width="49" height="54" xoffset="4" yoffset="9" xadvance="57" page="0" chnl="0" />
<char id="92" x="281" y="0" width="20" height="51" xoffset="0" yoffset="7" xadvance="19" page="0" chnl="0" />
<char id="47" x="301" y="0" width="20" height="51" xoffset="0" yoffset="7" xadvance="19" page="0" chnl="0" />
<char id="113" x="321" y="0" width="28" height="49" xoffset="3" yoffset="16" xadvance="36" page="0" chnl="0" />
<char id="112" x="349" y="0" width="28" height="49" xoffset="5" yoffset="16" xadvance="36" page="0" chnl="0" />
<char id="103" x="377" y="0" width="28" height="49" xoffset="3" yoffset="16" xadvance="36" page="0" chnl="0" />
<char id="100" x="405" y="0" width="28" height="49" xoffset="3" yoffset="5" xadvance="36" page="0" chnl="0" />
<char id="98" x="433" y="0" width="28" height="49" xoffset="5" yoffset="5" xadvance="36" page="0" chnl="0" />
<char id="121" x="461" y="0" width="31" height="48" xoffset="2" yoffset="17" xadvance="34" page="0" chnl="0" />
<char id="108" x="492" y="0" width="6" height="48" xoffset="5" yoffset="5" xadvance="16" page="0" chnl="0" />
<char id="107" x="0" y="61" width="28" height="48" xoffset="5" yoffset="5" xadvance="33" page="0" chnl="0" />
<char id="105" x="28" y="61" width="6" height="48" xoffset="5" yoffset="5" xadvance="16" page="0" chnl="0" />
<char id="104" x="34" y="61" width="27" height="48" xoffset="5" yoffset="5" xadvance="36" page="0" chnl="0" />
<char id="102" x="61" y="61" width="22" height="48" xoffset="1" yoffset="5" xadvance="20" page="0" chnl="0" />
<char id="83" x="83" y="61" width="30" height="48" xoffset="4" yoffset="6" xadvance="36" page="0" chnl="0" />
<char id="79" x="113" y="61" width="39" height="48" xoffset="3" yoffset="6" xadvance="45" page="0" chnl="0" />
<char id="71" x="152" y="61" width="37" height="48" xoffset="3" yoffset="6" xadvance="44" page="0" chnl="0" />
<char id="67" x="189" y="61" width="34" height="48" xoffset="3" yoffset="6" xadvance="40" page="0" chnl="0" />
<char id="57" x="223" y="61" width="29" height="48" xoffset="4" yoffset="6" xadvance="36" page="0" chnl="0" />
<char id="56" x="252" y="61" width="29" height="48" xoffset="4" yoffset="6" xadvance="36" page="0" chnl="0" />
<char id="54" x="281" y="61" width="29" height="48" xoffset="4" yoffset="6" xadvance="36" page="0" chnl="0" />
<char id="51" x="310" y="61" width="28" height="48" xoffset="4" yoffset="6" xadvance="36" page="0" chnl="0" />
<char id="48" x="338" y="61" width="29" height="48" xoffset="4" yoffset="6" xadvance="36" page="0" chnl="0" />
<char id="38" x="367" y="61" width="39" height="48" xoffset="3" yoffset="6" xadvance="44" page="0" chnl="0" />
<char id="37" x="406" y="61" width="48" height="48" xoffset="3" yoffset="6" xadvance="54" page="0" chnl="0" />
<char id="85" x="454" y="61" width="32" height="47" xoffset="6" yoffset="7" xadvance="41" page="0" chnl="0" />
<char id="63" x="486" y="61" width="23" height="47" xoffset="4" yoffset="6" xadvance="30" page="0" chnl="0" />
<char id="53" x="0" y="109" width="27" height="47" xoffset="4" yoffset="7" xadvance="36" page="0" chnl="0" />
<char id="50" x="27" y="109" width="28" height="47" xoffset="4" yoffset="6" xadvance="36" page="0" chnl="0" />
<char id="90" x="55" y="109" width="34" height="46" xoffset="3" yoffset="7" xadvance="39" page="0" chnl="0" />
<char id="89" x="89" y="109" width="36" height="46" xoffset="-1" yoffset="7" xadvance="35" page="0" chnl="0" />
<char id="88" x="125" y="109" width="36" height="46" xoffset="2" yoffset="7" xadvance="39" page="0" chnl="0" />
<char id="87" x="161" y="109" width="53" height="46" xoffset="2" yoffset="7" xadvance="56" page="0" chnl="0" />
<char id="86" x="214" y="109" width="38" height="46" xoffset="0" yoffset="7" xadvance="39" page="0" chnl="0" />
<char id="84" x="252" y="109" width="36" height="46" xoffset="-1" yoffset="7" xadvance="35" page="0" chnl="0" />
<char id="82" x="288" y="109" width="32" height="46" xoffset="5" yoffset="7" xadvance="39" page="0" chnl="0" />
<char id="80" x="320" y="109" width="27" height="46" xoffset="5" yoffset="7" xadvance="34" page="0" chnl="0" />
<char id="78" x="347" y="109" width="32" height="46" xoffset="5" yoffset="7" xadvance="42" page="0" chnl="0" />
<char id="77" x="379" y="109" width="38" height="46" xoffset="5" yoffset="7" xadvance="49" page="0" chnl="0" />
<char id="76" x="417" y="109" width="26" height="46" xoffset="5" yoffset="7" xadvance="32" page="0" chnl="0" />
<char id="75" x="443" y="109" width="34" height="46" xoffset="5" yoffset="7" xadvance="37" page="0" chnl="0" />
<char id="73" x="477" y="109" width="6" height="46" xoffset="5" yoffset="7" xadvance="17" page="0" chnl="0" />
<char id="72" x="0" y="156" width="32" height="46" xoffset="5" yoffset="7" xadvance="43" page="0" chnl="0" />
<char id="70" x="32" y="156" width="24" height="46" xoffset="5" yoffset="7" xadvance="33" page="0" chnl="0" />
<char id="69" x="56" y="156" width="27" height="46" xoffset="5" yoffset="7" xadvance="36" page="0" chnl="0" />
<char id="68" x="83" y="156" width="35" height="46" xoffset="5" yoffset="7" xadvance="44" page="0" chnl="0" />
<char id="66" x="118" y="156" width="30" height="46" xoffset="5" yoffset="7" xadvance="39" page="0" chnl="0" />
<char id="65" x="148" y="156" width="38" height="46" xoffset="0" yoffset="7" xadvance="39" page="0" chnl="0" />
<char id="55" x="186" y="156" width="27" height="46" xoffset="4" yoffset="7" xadvance="36" page="0" chnl="0" />
<char id="52" x="213" y="156" width="31" height="46" xoffset="3" yoffset="7" xadvance="36" page="0" chnl="0" />
<char id="49" x="244" y="156" width="25" height="46" xoffset="6" yoffset="7" xadvance="36" page="0" chnl="0" />
<char id="33" x="269" y="156" width="7" height="46" xoffset="8" yoffset="7" xadvance="23" page="0" chnl="0" />
<char id="116" x="276" y="156" width="20" height="45" xoffset="1" yoffset="8" xadvance="22" page="0" chnl="0" />
<char id="35" x="296" y="156" width="39" height="44" xoffset="4" yoffset="9" xadvance="47" page="0" chnl="0" />
<char id="59" x="335" y="156" width="8" height="40" xoffset="5" yoffset="19" xadvance="19" page="0" chnl="0" />
<char id="43" x="343" y="156" width="36" height="40" xoffset="6" yoffset="13" xadvance="47" page="0" chnl="0" />
<char id="115" x="379" y="156" width="25" height="38" xoffset="3" yoffset="16" xadvance="30" page="0" chnl="0" />
<char id="111" x="404" y="156" width="29" height="38" xoffset="3" yoffset="16" xadvance="35" page="0" chnl="0" />
<char id="101" x="433" y="156" width="29" height="38" xoffset="3" yoffset="16" xadvance="35" page="0" chnl="0" />
<char id="99" x="462" y="156" width="25" height="38" xoffset="3" yoffset="16" xadvance="31" page="0" chnl="0" />
<char id="97" x="0" y="202" width="27" height="38" xoffset="3" yoffset="16" xadvance="35" page="0" chnl="0" />
<char id="117" x="27" y="202" width="27" height="37" xoffset="5" yoffset="17" xadvance="36" page="0" chnl="0" />
<char id="114" x="54" y="202" width="19" height="37" xoffset="5" yoffset="16" xadvance="24" page="0" chnl="0" />
<char id="110" x="73" y="202" width="27" height="37" xoffset="5" yoffset="16" xadvance="36" page="0" chnl="0" />
<char id="109" x="100" y="202" width="46" height="37" xoffset="5" yoffset="16" xadvance="55" page="0" chnl="0" />
<char id="122" x="146" y="202" width="26" height="36" xoffset="2" yoffset="17" xadvance="30" page="0" chnl="0" />
<char id="120" x="172" y="202" width="31" height="36" xoffset="2" yoffset="17" xadvance="34" page="0" chnl="0" />
<char id="119" x="203" y="202" width="42" height="36" xoffset="2" yoffset="17" xadvance="46" page="0" chnl="0" />
<char id="118" x="245" y="202" width="31" height="36" xoffset="2" yoffset="17" xadvance="34" page="0" chnl="0" />
<char id="62" x="276" y="202" width="36" height="35" xoffset="6" yoffset="15" xadvance="47" page="0" chnl="0" />
<char id="60" x="312" y="202" width="36" height="35" xoffset="6" yoffset="15" xadvance="47" page="0" chnl="0" />
<char id="58" x="348" y="202" width="7" height="34" xoffset="7" yoffset="19" xadvance="19" page="0" chnl="0" />
<char id="42" x="355" y="202" width="26" height="31" xoffset="1" yoffset="6" xadvance="29" page="0" chnl="0" />
<char id="61" x="381" y="202" width="36" height="22" xoffset="6" yoffset="22" xadvance="47" page="0" chnl="0" />
<char id="94" x="417" y="202" width="36" height="20" xoffset="6" yoffset="7" xadvance="47" page="0" chnl="0" />
<char id="39" x="453" y="202" width="6" height="20" xoffset="5" yoffset="7" xadvance="16" page="0" chnl="0" />
<char id="34" x="459" y="202" width="17" height="20" xoffset="5" yoffset="7" xadvance="26" page="0" chnl="0" />
<char id="44" x="476" y="202" width="8" height="18" xoffset="5" yoffset="41" xadvance="18" page="0" chnl="0" />
<char id="126" x="0" y="240" width="36" height="16" xoffset="6" yoffset="25" xadvance="47" page="0" chnl="0" />
<char id="96" x="36" y="240" width="14" height="15" xoffset="5" yoffset="3" xadvance="29" page="0" chnl="0" />
<char id="46" x="50" y="240" width="6" height="12" xoffset="7" yoffset="41" xadvance="18" page="0" chnl="0" />
<char id="45" x="56" y="240" width="16" height="10" xoffset="3" yoffset="30" xadvance="21" page="0" chnl="0" />
<char id="95" x="72" y="240" width="31" height="9" xoffset="-1" yoffset="57" xadvance="29" page="0" chnl="0" />
</chars>
</font>
